{
   "photos":{
      "page":1,
      "pages":8321,
      "perpage":100,
      "total":832064,
      "photo":[
         {
            "id":"51499357388",
            "owner":"142481105@N05",
            "secret":"480985ccf4",
            "server":"65535",
            "farm":66,
            "title":"Well, My House, My Bed",
            "ispublic":1,
            "isfriend":0,
            "isfamily":0
         },
         {
            "id":"51499713710",
            "owner":"188221168@N05",
            "secret":"4f3c71cd0c",
            "server":"65535",
            "farm":66,
            "title":"Fr\u00f6lunda Muslimska Samfund",
            "ispublic":1,
            "isfriend":0,
            "isfamily":0
         },
         {
            "id":"51498554633",
            "owner":"94283635@N00",
            "secret":"39dc4e1a68",
            "server":"65535",
            "farm":66,
            "title":"Tipper's Tiny Goatee",
            "ispublic":1,
            "isfriend":0,
            "isfamily":0
         },
         {
            "id":"51498188545",
            "owner":"51388540@N05",
            "secret":"de6b8ce600",
            "server":"65535",
            "farm":66,
            "title":"10652 - Galatea",
            "ispublic":1,
            "isfriend":0,
            "isfamily":0
         },
         {
            "id":"51497479203",
            "owner":"141755413@N05",
            "secret":"bf7b342002",
            "server":"65535",
            "farm":66,
            "title":"Oooo! Am I Famous?!",
            "ispublic":1,
            "isfriend":0,
            "isfamily":0
         },
         {
            "id":"51497378433",
            "owner":"51388540@N05",
            "secret":"0a63e922a6",
            "server":"65535",
            "farm":66,
            "title":"10694 - Soccer",
            "ispublic":1,
            "isfriend":0,
            "isfamily":0
         },
         {
            "id":"51496179862",
            "owner":"7675787@N06",
            "secret":"3a18fe22f5",
            "server":"65535",
            "farm":66,
            "title":"baby Bodhi",
            "ispublic":1,
            "isfriend":0,
            "isfamily":0
         },
         {
            "id":"51496205133",
            "owner":"87642046@N00",
            "secret":"1f81fd67fc",
            "server":"65535",
            "farm":66,
            "title":"Day 257 - All four",
            "ispublic":1,
            "isfriend":0,
            "isfamily":0
         },
         {
            "id":"51496908135",
            "owner":"87642046@N00",
            "secret":"dbc5203fb6",
            "server":"65535",
            "farm":66,
            "title":"Day 253 - Freaky",
            "ispublic":1,
            "isfriend":0,
            "isfamily":0
         },
         {
            "id":"51496205043",
            "owner":"87642046@N00",
            "secret":"170f78c565",
            "server":"65535",
            "farm":66,
            "title":"Day 256 - Last Litter",
            "ispublic":1,
            "isfriend":0,
            "isfamily":0
         },
         {
            "id":"51496696654",
            "owner":"87642046@N00",
            "secret":"7b1b6256ce",
            "server":"65535",
            "farm":66,
            "title":"Day 254 - Blue",
            "ispublic":1,
            "isfriend":0,
            "isfamily":0
         },
         {
            "id":"51495982971",
            "owner":"87642046@N00",
            "secret":"613baf2e1b",
            "server":"65535",
            "farm":66,
            "title":"Day 246 - Bean_",
            "ispublic":1,
            "isfriend":0,
            "isfamily":0
         },
         {
            "id":"51496908000",
            "owner":"87642046@N00",
            "secret":"61d6239acb",
            "server":"65535",
            "farm":66,
            "title":"Day 251 - Blue",
            "ispublic":1,
            "isfriend":0,
            "isfamily":0
         },
         {
            "id":"51495720021",
            "owner":"39683033@N08",
            "secret":"c58024356f",
            "server":"65535",
            "farm":66,
            "title":"Mandy Monday: = Sleepy Monday",
            "ispublic":1,
            "isfriend":0,
            "isfamily":0
         },
         {
            "id":"51496533845",
            "owner":"148179219@N03",
            "secret":"96c7d796c5",
            "server":"65535",
            "farm":66,
            "title":"poedie 3 (14)",
            "ispublic":1,
            "isfriend":0,
            "isfamily":0
         },
         {
            "id":"51494786117",
            "owner":"30288073@N08",
            "secret":"e6e80aacaa",
            "server":"65535",
            "farm":66,
            "title":"Master of Puppets",
            "ispublic":1,
            "isfriend":0,
            "isfamily":0
         },
         {
            "id":"51496492605",
            "owner":"91280126@N05",
            "secret":"2f644acd5f",
            "server":"65535",
            "farm":66,
            "title":"trepando por la vida",
            "ispublic":1,
            "isfriend":0,
            "isfamily":0
         },
         {
            "id":"51496480525",
            "owner":"91280126@N05",
            "secret":"96e324b0ed",
            "server":"65535",
            "farm":66,
            "title":"nuevas experiencias",
            "ispublic":1,
            "isfriend":0,
            "isfamily":0
         },
         {
            "id":"51494145387",
            "owner":"81159791@N08",
            "secret":"96c11bbfd7",
            "server":"65535",
            "farm":66,
            "title":"Kitten",
            "ispublic":1,
            "isfriend":0,
            "isfamily":0
         },
         {
            "id":"51494423823",
            "owner":"38383999@N06",
            "secret":"3e65595006",
            "server":"65535",
            "farm":66,
            "title":"Cat's Are Just Tiny Dragons",
            "ispublic":1,
            "isfriend":0,
            "isfamily":0
         },
         {
            "id":"51494205944",
            "owner":"51388540@N05",
            "secret":"f87f26b334",
            "server":"65535",
            "farm":66,
            "title":"10702 - Country cat",
            "ispublic":1,
            "isfriend":0,
            "isfamily":0
         },
         {
            "id":"51492526282",
            "owner":"121099489@N03",
            "secret":"f9061f24da",
            "server":"65535",
            "farm":66,
            "title":"",
            "ispublic":1,
            "isfriend":0,
            "isfamily":0
         },
         {
            "id":"51492885476",
            "owner":"51388540@N05",
            "secret":"079abecd19",
            "server":"65535",
            "farm":66,
            "title":"10699 - Duccio",
            "ispublic":1,
            "isfriend":0,
            "isfamily":0
         },
         {
            "id":"51493420174",
            "owner":"63189170@N04",
            "secret":"2c61c62d09",
            "server":"65535",
            "farm":66,
            "title":"handmade Japanese cat ,handmade Japanese decor, Japanese doll, lovely cat decor, miniature, handmade home decor, handmade art dolls",
            "ispublic":1,
            "isfriend":0,
            "isfamily":0
         },
         {
            "id":"51491843682",
            "owner":"51388540@N05",
            "secret":"a65f7f483c",
            "server":"65535",
            "farm":66,
            "title":"DSCF0670 - Save",
            "ispublic":1,
            "isfriend":0,
            "isfamily":0
         },
         {
            "id":"51492754278",
            "owner":"34660467@N08",
            "secret":"cc8f88ed53",
            "server":"65535",
            "farm":66,
            "title":"Kitten-Fun",
            "ispublic":1,
            "isfriend":0,
            "isfamily":0
         },
         {
            "id":"51493314970",
            "owner":"51388540@N05",
            "secret":"8381080564",
            "server":"65535",
            "farm":66,
            "title":"10664 - Galatea",
            "ispublic":1,
            "isfriend":0,
            "isfamily":0
         },
         {
            "id":"51492505203",
            "owner":"7168480@N02",
            "secret":"cd7950cb8a",
            "server":"65535",
            "farm":66,
            "title":"Sky viewing his world",
            "ispublic":1,
            "isfriend":0,
            "isfamily":0
         },
         {
            "id":"51492656014",
            "owner":"146070356@N04",
            "secret":"a35a7bf6dc",
            "server":"65535",
            "farm":66,
            "title":"September rain",
            "ispublic":1,
            "isfriend":0,
            "isfamily":0
         },
         {
            "id":"51491191442",
            "owner":"193998801@N06",
            "secret":"65069675d6",
            "server":"65535",
            "farm":66,
            "title":"Young cat with toy",
            "ispublic":1,
            "isfriend":0,
            "isfamily":0
         },
         {
            "id":"51490519967",
            "owner":"46486425@N08",
            "secret":"e193d8e054",
            "server":"65535",
            "farm":66,
            "title":"It's getting cold, enjoy a cup of coffee",
            "ispublic":1,
            "isfriend":0,
            "isfamily":0
         },
         {
            "id":"51491511228",
            "owner":"21089196@N03",
            "secret":"662746c758",
            "server":"65535",
            "farm":66,
            "title":"George and His Mother",
            "ispublic":1,
            "isfriend":0,
            "isfamily":0
         },
         {
            "id":"51491466398",
            "owner":"36001671@N00",
            "secret":"5f2d7f96d2",
            "server":"65535",
            "farm":66,
            "title":"Phoebe stretches & shows off her claws",
            "ispublic":1,
            "isfriend":0,
            "isfamily":0
         },
         {
            "id":"51490393452",
            "owner":"63430184@N05",
            "secret":"626894c7eb",
            "server":"65535",
            "farm":66,
            "title":"The Cat in the Basket",
            "ispublic":1,
            "isfriend":0,
            "isfamily":0
         },
         {
            "id":"51491116136",
            "owner":"63430184@N05",
            "secret":"9cc871d88c",
            "server":"65535",
            "farm":66,
            "title":"Max",
            "ispublic":1,
            "isfriend":0,
            "isfamily":0
         },
         {
            "id":"51490635628",
            "owner":"193596373@N07",
            "secret":"6d88cd6ac4",
            "server":"65535",
            "farm":66,
            "title":"Cat Nap",
            "ispublic":1,
            "isfriend":0,
            "isfamily":0
         },
         {
            "id":"51490411676",
            "owner":"38383999@N06",
            "secret":"38a6e90e47",
            "server":"65535",
            "farm":66,
            "title":"Yawn!",
            "ispublic":1,
            "isfriend":0,
            "isfamily":0
         },
         {
            "id":"51491129680",
            "owner":"51388540@N05",
            "secret":"60a6083505",
            "server":"65535",
            "farm":66,
            "title":"10678 - Devil cat",
            "ispublic":1,
            "isfriend":0,
            "isfamily":0
         },
         {
            "id":"51491126665",
            "owner":"19872565@N00",
            "secret":"6a3bc9ac19",
            "server":"65535",
            "farm":66,
            "title":"20181215_4750c",
            "ispublic":1,
            "isfriend":0,
            "isfamily":0
         },
         {
            "id":"51489184721",
            "owner":"189786436@N08",
            "secret":"380f566f63",
            "server":"65535",
            "farm":66,
            "title":"Birthday celebration with Daddy",
            "ispublic":1,
            "isfriend":0,
            "isfamily":0
         },
         {
            "id":"51489896054",
            "owner":"189786436@N08",
            "secret":"687f84b868",
            "server":"65535",
            "farm":66,
            "title":"Birthday celebration with Daddy",
            "ispublic":1,
            "isfriend":0,
            "isfamily":0
         },
         {
            "id":"51490115610",
            "owner":"189786436@N08",
            "secret":"cb6ced4412",
            "server":"65535",
            "farm":66,
            "title":"Birthday celebration with Daddy",
            "ispublic":1,
            "isfriend":0,
            "isfamily":0
         },
         {
            "id":"51489916550",
            "owner":"182268631@N04",
            "secret":"3d40fab7bd",
            "server":"65535",
            "farm":66,
            "title":"Licking Her Chops",
            "ispublic":1,
            "isfriend":0,
            "isfamily":0
         },
         {
            "id":"51489903420",
            "owner":"193919823@N03",
            "secret":"498d9f0ba4",
            "server":"65535",
            "farm":66,
            "title":"kitten with mother love",
            "ispublic":1,
            "isfriend":0,
            "isfamily":0
         },
         {
            "id":"51488956941",
            "owner":"193919823@N03",
            "secret":"7f5feba755",
            "server":"65535",
            "farm":66,
            "title":"Kitten",
            "ispublic":1,
            "isfriend":0,
            "isfamily":0
         },
         {
            "id":"51489529764",
            "owner":"30288073@N08",
            "secret":"0340b690f1",
            "server":"65535",
            "farm":66,
            "title":"Sleeping pinks",
            "ispublic":1,
            "isfriend":0,
            "isfamily":0
         },
         {
            "id":"51488590486",
            "owner":"148179219@N03",
            "secret":"946de689e2",
            "server":"65535",
            "farm":66,
            "title":"poedie 3 (42)",
            "ispublic":1,
            "isfriend":0,
            "isfamily":0
         },
         {
            "id":"51488716478",
            "owner":"53333703@N07",
            "secret":"bb7c9300f9",
            "server":"65535",
            "farm":66,
            "title":"Pigeon. The latest Ferel rescue",
            "ispublic":1,
            "isfriend":0,
            "isfamily":0
         },
         {
            "id":"51489426435",
            "owner":"53333703@N07",
            "secret":"ea9cbe34ac",
            "server":"65535",
            "farm":66,
            "title":"Pigeon. The latest Ferel rescue",
            "ispublic":1,
            "isfriend":0,
            "isfamily":0
         },
         {
            "id":"51488664023",
            "owner":"193937798@N05",
            "secret":"0eb9b4c4fd",
            "server":"65535",
            "farm":66,
            "title":"Cute Kitten.",
            "ispublic":1,
            "isfriend":0,
            "isfamily":0
         },
         {
            "id":"51489237710",
            "owner":"193884581@N04",
            "secret":"e648cd74a4",
            "server":"65535",
            "farm":66,
            "title":"My cat Miss Keeks",
            "ispublic":1,
            "isfriend":0,
            "isfamily":0
         },
         {
            "id":"51489020684",
            "owner":"193884581@N04",
            "secret":"93b5fbbbb3",
            "server":"65535",
            "farm":66,
            "title":"My cat Miss Keeks",
            "ispublic":1,
            "isfriend":0,
            "isfamily":0
         },
         {
            "id":"51488712625",
            "owner":"75885098@N05",
            "secret":"59d63bc8b5",
            "server":"65535",
            "farm":66,
            "title":"Rena looking at Kerri - instant friends",
            "ispublic":1,
            "isfriend":0,
            "isfamily":0
         },
         {
            "id":"51486491412",
            "owner":"21517915@N05",
            "secret":"25f0e6e881",
            "server":"65535",
            "farm":66,
            "title":"Little Kitty",
            "ispublic":1,
            "isfriend":0,
            "isfamily":0
         },
         {
            "id":"51487321078",
            "owner":"156443183@N08",
            "secret":"ec85724faf",
            "server":"65535",
            "farm":66,
            "title":"max",
            "ispublic":1,
            "isfriend":0,
            "isfamily":0
         },
         {
            "id":"51487492015",
            "owner":"66772981@N08",
            "secret":"041621a9c2",
            "server":"65535",
            "farm":66,
            "title":"Rarity",
            "ispublic":1,
            "isfriend":0,
            "isfamily":0
         },
         {
            "id":"51485695302",
            "owner":"190540556@N05",
            "secret":"10d945271b",
            "server":"65535",
            "farm":66,
            "title":"Pearl's place",
            "ispublic":1,
            "isfriend":0,
            "isfamily":0
         },
         {
            "id":"51487106214",
            "owner":"158564542@N06",
            "secret":"43c87e269d",
            "server":"65535",
            "farm":66,
            "title":"flecky",
            "ispublic":1,
            "isfriend":0,
            "isfamily":0
         },
         {
            "id":"51487008684",
            "owner":"162063214@N07",
            "secret":"3bc4eec176",
            "server":"65535",
            "farm":66,
            "title":"Scared",
            "ispublic":1,
            "isfriend":0,
            "isfamily":0
         },
         {
            "id":"51486007711",
            "owner":"193979847@N06",
            "secret":"fb079006cf",
            "server":"65535",
            "farm":66,
            "title":"choclate cat",
            "ispublic":1,
            "isfriend":0,
            "isfamily":0
         },
         {
            "id":"51486636394",
            "owner":"98062192@N08",
            "secret":"32f541a211",
            "server":"65535",
            "farm":66,
            "title":"Manfred",
            "ispublic":1,
            "isfriend":0,
            "isfamily":0
         },
         {
            "id":"51486622669",
            "owner":"148179219@N03",
            "secret":"f6d2364f6a",
            "server":"65535",
            "farm":66,
            "title":"poedie 2 tribute (1)",
            "ispublic":1,
            "isfriend":0,
            "isfamily":0
         },
         {
            "id":"51486493355",
            "owner":"143574147@N03",
            "secret":"054873394c",
            "server":"65535",
            "farm":66,
            "title":"<3H - BINARYHEARTS - BiHeadset",
            "ispublic":1,
            "isfriend":0,
            "isfamily":0
         },
         {
            "id":"51485490841",
            "owner":"193937798@N05",
            "secret":"5f8378f68b",
            "server":"65535",
            "farm":66,
            "title":"Kitten",
            "ispublic":1,
            "isfriend":0,
            "isfamily":0
         },
         {
            "id":"51484399977",
            "owner":"193939351@N05",
            "secret":"35fa04d5cb",
            "server":"65535",
            "farm":66,
            "title":"Aria the kitty chilling 2",
            "ispublic":1,
            "isfriend":0,
            "isfamily":0
         },
         {
            "id":"51486107040",
            "owner":"193939351@N05",
            "secret":"4a9378f6a7",
            "server":"65535",
            "farm":66,
            "title":"Aria the kitty chilling",
            "ispublic":1,
            "isfriend":0,
            "isfamily":0
         },
         {
            "id":"51485659814",
            "owner":"193864358@N08",
            "secret":"56370e24ed",
            "server":"65535",
            "farm":66,
            "title":"IMG_0749",
            "ispublic":1,
            "isfriend":0,
            "isfamily":0
         },
         {
            "id":"51484927148",
            "owner":"193864358@N08",
            "secret":"6be503a284",
            "server":"65535",
            "farm":66,
            "title":"IMG_2647",
            "ispublic":1,
            "isfriend":0,
            "isfamily":0
         },
         {
            "id":"51484928043",
            "owner":"193884581@N04",
            "secret":"0ab470a983",
            "server":"65535",
            "farm":66,
            "title":"My cat Miss Keeks",
            "ispublic":1,
            "isfriend":0,
            "isfamily":0
         },
         {
            "id":"51484531576",
            "owner":"184307436@N07",
            "secret":"b478bed209",
            "server":"65535",
            "farm":66,
            "title":"The Sound of Children Playing",
            "ispublic":1,
            "isfriend":0,
            "isfamily":0
         },
         {
            "id":"51484323076",
            "owner":"193773796@N05",
            "secret":"02b2676318",
            "server":"65535",
            "farm":66,
            "title":"",
            "ispublic":1,
            "isfriend":0,
            "isfamily":0
         },
         {
            "id":"51485245090",
            "owner":"193773796@N05",
            "secret":"35e0f65289",
            "server":"65535",
            "farm":66,
            "title":"",
            "ispublic":1,
            "isfriend":0,
            "isfamily":0
         },
         {
            "id":"51485245100",
            "owner":"193773796@N05",
            "secret":"32ccb554e6",
            "server":"65535",
            "farm":66,
            "title":"",
            "ispublic":1,
            "isfriend":0,
            "isfamily":0
         },
         {
            "id":"51482986107",
            "owner":"33037982@N04",
            "secret":"12050829b3",
            "server":"65535",
            "farm":66,
            "title":"Bob and Chilli",
            "ispublic":1,
            "isfriend":0,
            "isfamily":0
         },
         {
            "id":"51483769326",
            "owner":"33037982@N04",
            "secret":"d32d48172f",
            "server":"65535",
            "farm":66,
            "title":"Bob and Chilli",
            "ispublic":1,
            "isfriend":0,
            "isfamily":0
         },
         {
            "id":"51483769226",
            "owner":"33037982@N04",
            "secret":"8305bf27fd",
            "server":"65535",
            "farm":66,
            "title":"Bob and Chilli",
            "ispublic":1,
            "isfriend":0,
            "isfamily":0
         },
         {
            "id":"51484490659",
            "owner":"33037982@N04",
            "secret":"b1ce592841",
            "server":"65535",
            "farm":66,
            "title":"Bob and Chilli",
            "ispublic":1,
            "isfriend":0,
            "isfamily":0
         },
         {
            "id":"51484490544",
            "owner":"33037982@N04",
            "secret":"e8fa22c0e0",
            "server":"65535",
            "farm":66,
            "title":"Bob and Chilli",
            "ispublic":1,
            "isfriend":0,
            "isfamily":0
         },
         {
            "id":"51482985532",
            "owner":"33037982@N04",
            "secret":"e773734135",
            "server":"65535",
            "farm":66,
            "title":"Bob and Chilli",
            "ispublic":1,
            "isfriend":0,
            "isfamily":0
         },
         {
            "id":"51484694070",
            "owner":"33037982@N04",
            "secret":"e557fee298",
            "server":"65535",
            "farm":66,
            "title":"Bob and Chilli (she was biting his face!)",
            "ispublic":1,
            "isfriend":0,
            "isfamily":0
         },
         {
            "id":"51483986473",
            "owner":"33037982@N04",
            "secret":"60d57f90e4",
            "server":"65535",
            "farm":66,
            "title":"Bob and Chilli",
            "ispublic":1,
            "isfriend":0,
            "isfamily":0
         },
         {
            "id":"51483983148",
            "owner":"33037982@N04",
            "secret":"8fb292914c",
            "server":"65535",
            "farm":66,
            "title":"My turn to meet Chilli",
            "ispublic":1,
            "isfriend":0,
            "isfamily":0
         },
         {
            "id":"51483765256",
            "owner":"33037982@N04",
            "secret":"86fa39cc0a",
            "server":"65535",
            "farm":66,
            "title":"My turn to meet Chilli",
            "ispublic":1,
            "isfriend":0,
            "isfamily":0
         },
         {
            "id":"51483765196",
            "owner":"33037982@N04",
            "secret":"89b77b841d",
            "server":"65535",
            "farm":66,
            "title":"My turn to meet Chilli",
            "ispublic":1,
            "isfriend":0,
            "isfamily":0
         },
         {
            "id":"51484486839",
            "owner":"33037982@N04",
            "secret":"79ba85084e",
            "server":"65535",
            "farm":66,
            "title":"My turn to meet Chilli",
            "ispublic":1,
            "isfriend":0,
            "isfamily":0
         },
         {
            "id":"51484418710",
            "owner":"53592889@N06",
            "secret":"f43bc0aabd",
            "server":"65535",
            "farm":66,
            "title":"British Shorthair kitten",
            "ispublic":1,
            "isfriend":0,
            "isfamily":0
         },
         {
            "id":"51482710432",
            "owner":"53592889@N06",
            "secret":"5f7a8f2f8d",
            "server":"65535",
            "farm":66,
            "title":"British Shorthair kitten",
            "ispublic":1,
            "isfriend":0,
            "isfamily":0
         },
         {
            "id":"51483493226",
            "owner":"53592889@N06",
            "secret":"f820102739",
            "server":"65535",
            "farm":66,
            "title":"British Shorthair kitten",
            "ispublic":1,
            "isfriend":0,
            "isfamily":0
         },
         {
            "id":"51484363430",
            "owner":"7786842@N02",
            "secret":"6a23bd987d",
            "server":"65535",
            "farm":66,
            "title":"259\/365\/2021",
            "ispublic":1,
            "isfriend":0,
            "isfamily":0
         },
         {
            "id":"51480742131",
            "owner":"155928293@N07",
            "secret":"29649f0a17",
            "server":"65535",
            "farm":66,
            "title":"little happiness. 1989",
            "ispublic":1,
            "isfriend":0,
            "isfamily":0
         },
         {
            "id":"51481273384",
            "owner":"9822107@N08",
            "secret":"d10545a2cd",
            "server":"65535",
            "farm":66,
            "title":"unluckycats-pattern-sherriethaiart",
            "ispublic":1,
            "isfriend":0,
            "isfamily":0
         },
         {
            "id":"51480771163",
            "owner":"9822107@N08",
            "secret":"904a22bfe4",
            "server":"65535",
            "farm":66,
            "title":"unluckycats-sherriethaiart",
            "ispublic":1,
            "isfriend":0,
            "isfamily":0
         },
         {
            "id":"51479712817",
            "owner":"193397747@N06",
            "secret":"20a0d8378a",
            "server":"65535",
            "farm":66,
            "title":"new family member",
            "ispublic":1,
            "isfriend":0,
            "isfamily":0
         },
         {
            "id":"51481212104",
            "owner":"58635591@N00",
            "secret":"a41bfcfa7b",
            "server":"65535",
            "farm":66,
            "title":"",
            "ispublic":1,
            "isfriend":0,
            "isfamily":0
         },
         {
            "id":"51480608198",
            "owner":"58635591@N00",
            "secret":"e1d575fc61",
            "server":"65535",
            "farm":66,
            "title":"Simon",
            "ispublic":1,
            "isfriend":0,
            "isfamily":0
         },
         {
            "id":"51480851155",
            "owner":"54716239@N02",
            "secret":"2e9aaf861d",
            "server":"65535",
            "farm":66,
            "title":"One of the kittens at 7 weeks",
            "ispublic":1,
            "isfriend":0,
            "isfamily":0
         },
         {
            "id":"51480575039",
            "owner":"36524915@N05",
            "secret":"5a8a5f4058",
            "server":"65535",
            "farm":66,
            "title":"Cats are Dicks",
            "ispublic":1,
            "isfriend":0,
            "isfamily":0
         },
         {
            "id":"51478901427",
            "owner":"63633802@N00",
            "secret":"418f181538",
            "server":"65535",
            "farm":66,
            "title":"Neo el gat #3",
            "ispublic":1,
            "isfriend":0,
            "isfamily":0
         },
         {
            "id":"51479681781",
            "owner":"63633802@N00",
            "secret":"65c497e64a",
            "server":"65535",
            "farm":66,
            "title":"Neo el gat #2",
            "ispublic":1,
            "isfriend":0,
            "isfamily":0
         },
         {
            "id":"51480399234",
            "owner":"63633802@N00",
            "secret":"ee8490164d",
            "server":"65535",
            "farm":66,
            "title":"Neo el gat #1",
            "ispublic":1,
            "isfriend":0,
            "isfamily":0
         }
      ]
   },
   "stat":"ok"
}
